<svg xmlns="http://www.w3.org/2000/svg" viewBox="0 0 1920 2638.7">
  <path fill="#fff" d="M0 361.3s154.6-161.6 400.5-86.1c28.1-54.5 242.4-319.7 662.3-268.8 435.4 52.8 653.5 360.1 651.7 650 0 0 163.4 19.3 205.5 202v1780.2H1.8L0 361.3z"/>
</svg>
